Project/rvseed_5/tb/sim_out.vcd
$date
	Thu Apr 14 00:06:36 2022
$end
$version
	Icarus Verilog
$end
$timescale
	1ps
$end
$scope module tb_rvseed $end
$var reg 1 ! clk $end
$var reg 40 " inst_name [39:0] $end
$var reg 1 # rst_n $end
$scope module u_rvseed_0 $end
$var wire 1 ! clk $end
$var wire 32 $ reg_wdata [31:0] $end
$var wire 1 # rst_n $end
$var wire 1 % zero $end
$var wire 1 & reg_wen $end
$var wire 5 ' reg_waddr [4:0] $end
$var wire 32 ( reg2_rdata [31:0] $end
$var wire 5 ) reg2_raddr [4:0] $end
$var wire 32 * reg1_rdata [31:0] $end
$var wire 5 + reg1_raddr [4:0] $end
$var wire 32 , next_pc [31:0] $end
$var wire 1 - jump $end
$var wire 32 . inst [31:0] $end
$var wire 3 / imm_gen_op [2:0] $end
$var wire 32 0 imm [31:0] $end
$var wire 1 1 ena $end
$var wire 32 2 curr_pc [31:0] $end
$var wire 1 3 branch $end
$var wire 2 4 alu_src_sel [1:0] $end
$var wire 32 5 alu_src2 [31:0] $end
$var wire 32 6 alu_src1 [31:0] $end
$var wire 32 7 alu_res [31:0] $end
$var wire 4 8 alu_op [3:0] $end
$scope module u_alu_0 $end
$var wire 32 9 alu_src2 [31:0] $end
$var wire 32 : alu_src1 [31:0] $end
$var wire 4 ; alu_op [3:0] $end
$var reg 32 < alu_res [31:0] $end
$var reg 1 % zero $end
$upscope $end
$scope module u_ctrl_0 $end
$var wire 5 = rs2 [4:0] $end
$var wire 5 > rs1 [4:0] $end
$var wire 5 ? rd [4:0] $end
$var wire 7 @ opcode [6:0] $end
$var wire 32 A inst [31:0] $end
$var wire 7 B funct7 [6:0] $end
$var wire 3 C funct3 [2:0] $end
$var reg 4 D alu_op [3:0] $end
$var reg 2 E alu_src_sel [1:0] $end
$var reg 1 3 branch $end
$var reg 3 F imm_gen_op [2:0] $end
$var reg 1 - jump $end
$var reg 5 G reg1_raddr [4:0] $end
$var reg 5 H reg2_raddr [4:0] $end
$var reg 5 I reg_waddr [4:0] $end
$var reg 1 & reg_wen $end
$upscope $end
$scope module u_imm_gen_0 $end
$var wire 3 J imm_gen_op [2:0] $end
$var wire 32 K inst [31:0] $end
$var reg 32 L imm [31:0] $end
$upscope $end
$scope module u_inst_mem_0 $end
$var wire 32 M curr_pc [31:0] $end
$var reg 32 N inst [31:0] $end
$upscope $end
$scope module u_mux_alu_0 $end
$var wire 2 O alu_src_sel [1:0] $end
$var wire 32 P imm [31:0] $end
$var wire 32 Q reg2_rdata [31:0] $end
$var wire 32 R reg1_rdata [31:0] $end
$var wire 32 S curr_pc [31:0] $end
$var reg 32 T alu_src1 [31:0] $end
$var reg 32 U alu_src2 [31:0] $end
$upscope $end
$scope module u_mux_pc_0 $end
$var wire 1 3 branch $end
$var wire 32 V imm [31:0] $end
$var wire 1 - jump $end
$var wire 1 % zero $end
$var wire 1 1 ena $end
$var wire 32 W curr_pc [31:0] $end
$var reg 32 X next_pc [31:0] $end
$upscope $end
$scope module u_pc_reg_0 $end
$var wire 1 ! clk $end
$var wire 32 Y next_pc [31:0] $end
$var wire 1 # rst_n $end
$var reg 32 Z curr_pc [31:0] $end
$var reg 1 1 ena $end
$upscope $end
$scope module u_reg_file_0 $end
$var wire 1 ! clk $end
$var wire 5 [ reg1_raddr [4:0] $end
$var wire 5 \ reg2_raddr [4:0] $end
$var wire 5 ] reg_waddr [4:0] $end
$var wire 32 ^ reg_wdata [31:0] $end
$var wire 1 & reg_wen $end
$var wire 1 # rst_n $end
$var reg 32 _ reg1_rdata [31:0] $end
$var reg 32 ` reg2_rdata [31:0] $end
$upscope $end
$upscope $end
$scope task inst_load $end
$var reg 40 a inst_name [39:0] $end
$upscope $end
$scope task reset $end
$upscope $end
$upscope $end
$enddefinitions $end
#0
$dumpvars
bx a
bx `
bx _
bx ^
bx ]
bx \
bx [
bx Z
bx Y
bx X
bx W
bx V
bx U
bx T
bx S
bx R
bx Q
bx P
bx O
bx N
bx M
bx L
bx K
bx J
bx I
bx H
bx G
bx F
bx E
bx D
bx C
bx B
bx A
bx @
bx ?
bx >
bx =
bx <
bx ;
bx :
bx 9
bx 8
bx 7
bx 6
bx 5
bx 4
x3
bx 2
x1
bx 0
bx /
bx .
x-
bx ,
bx +
bx *
bx )
bx (
bx '
x&
x%
bx $
x#
bx "
x!
$end
#10000
b0 5
b0 9
b0 U
b0 6
b0 :
b0 T
b0 $
b0 ^
b0 7
b0 <
0%
b0 (
b0 Q
b0 `
b0 *
b0 R
b0 _
b1 4
b1 E
b1 O
b11 8
b11 ;
b11 D
b0 /
b0 F
b0 J
b11010 '
b11010 I
b11010 ]
b0 )
b0 H
b0 \
b0 +
b0 G
b0 [
1&
0-
03
b0 =
b0 >
b11010 ?
b0 B
b0 C
b10011 @
b0 0
b0 L
b0 P
b0 V
b110100010011 .
b110100010011 A
b110100010011 K
b110100010011 N
b0 ,
b0 X
b0 Y
01
b0 2
b0 M
b0 S
b0 W
b0 Z
b10000010100010001000100 a
b10000010100010001000100 "
0#
1!
#20000
0!
#30000
b100 ,
b100 X
b100 Y
11
1!
1#
#40000
0!
#50000
b1 4
b1 E
b1 O
b11 8
b11 ;
b11 D
b11011 '
b11011 I
b11011 ]
1&
b11011 ?
b110110010011 .
b110110010011 A
b110110010011 K
b110110010011 N
b1000 ,
b1000 X
b1000 Y
b100 2
b100 M
b100 S
b100 W
b100 Z
1!
#60000
0!
#70000
b1 4
b1 E
b1 O
b11 8
b11 ;
b11 D
b1 '
b1 I
b1 ]
1&
b1 ?
b10010011 .
b10010011 A
b10010011 K
b10010011 N
b1100 ,
b1100 X
b1100 Y
b1000 2
b1000 M
b1000 S
b1000 W
b1000 Z
1!
#80000
0!
#90000
b1 4
b1 E
b1 O
b11 8
b11 ;
b11 D
b10 '
b10 I
b10 ]
1&
b10 ?
b100010011 .
b100010011 A
b100010011 K
b100010011 N
b10000 ,
b10000 X
b10000 Y
b1100 2
b1100 M
b1100 S
b1100 W
b1100 Z
1!
#100000
0!
#110000
b0 $
b0 ^
b0 7
b0 <
b10 )
b10 H
b10 \
b1 +
b1 G
b1 [
b0 4
b0 E
b0 O
b11 8
b11 ;
b11 D
b11110 '
b11110 I
b11110 ]
1&
b0 5
b0 9
b0 U
b10 =
b1 >
b11110 ?
b110011 @
b10 0
b10 L
b10 P
b10 V
b1000001000111100110011 .
b1000001000111100110011 A
b1000001000111100110011 K
b1000001000111100110011 N
b10100 ,
b10100 X
b10100 Y
b10000 2
b10000 M
b10000 S
b10000 W
b10000 Z
1!
#120000
0!
#130000
b1 4
b1 E
b1 O
b11 8
b11 ;
b11 D
b11101 '
b11101 I
b11101 ]
b0 )
b0 H
b0 \
b0 +
b0 G
b0 [
1&
b0 =
b0 >
b11101 ?
b10011 @
b0 0
b0 L
b0 P
b0 V
b111010010011 .
b111010010011 A
b111010010011 K
b111010010011 N
b11000 ,
b11000 X
b11000 Y
b10100 2
b10100 M
b10100 S
b10100 W
b10100 Z
1!
#140000
0!
#150000
b10 $
b10 ^
b10 7
b10 <
b1 4
b1 E
b1 O
b11 8
b11 ;
b11 D
b11 '
b11 I
b11 ]
1&
b10 5
b10 9
b10 U
b10 =
b11 ?
b10 0
b10 L
b10 P
b10 V
b1000000000000110010011 .
b1000000000000110010011 A
b1000000000000110010011 K
b1000000000000110010011 N
b11100 ,
b11100 X
b11100 Y
b11000 2
b11000 M
b11000 S
b11000 W
b11000 Z
1!
#160000
0!
#170000
1%
13
b10 /
b10 F
b10 J
b11101 )
b11101 H
b11101 \
b11110 +
b11110 G
b11110 [
b0 4
b0 E
b0 O
b100 8
b100 ;
b100 D
b0 '
b0 I
b0 ]
0&
b11101 =
b11110 >
b1100 ?
b100110 B
b1 C
b1100011 @
b10011001100 0
b10011001100 L
b10011001100 P
b10011001100 V
b0 $
b0 ^
b0 7
b0 <
b1001101110111110001011001100011 .
b1001101110111110001011001100011 A
b1001101110111110001011001100011 K
b1001101110111110001011001100011 N
b0 5
b0 9
b0 U
b100000 ,
b100000 X
b100000 Y
b11100 2
b11100 M
b11100 S
b11100 W
b11100 Z
1!
#180000
0!
#190000
b1 $
b1 ^
b1 7
b1 <
b1 5
b1 9
b1 U
0%
b1 4
b1 E
b1 O
b1 '
b1 I
b1 ]
1&
b11 8
b11 ;
b11 D
b0 /
b0 F
b0 J
b0 )
b0 H
b0 \
b0 +
b0 G
b0 [
03
b1 =
b0 >
b1 ?
b0 B
b0 C
b10011 @
b1 0
b1 L
b1 P
b1 V
b100000000000010010011 .
b100000000000010010011 A
b100000000000010010011 K
b100000000000010010011 N
b100100 ,
b100100 X
b100100 Y
b100000 2
b100000 M
b100000 S
b100000 W
b100000 Z
1!
#200000
0!
#210000
b1 4
b1 E
b1 O
b11 8
b11 ;
b11 D
b10 '
b10 I
b10 ]
1&
b10 ?
b1 0
b1 L
b1 P
b1 V
b1 $
b1 ^
b1 7
b1 <
b100000000000100010011 .
b100000000000100010011 A
b100000000000100010011 K
b100000000000100010011 N
b1 5
b1 9
b1 U
b101000 ,
b101000 X
b101000 Y
b100100 2
b100100 M
b100100 S
b100100 W
b100100 Z
1!
#220000
0!
#230000
b1 6
b1 :
b1 T
b1 (
b1 Q
b1 `
b1 *
b1 R
b1 _
b10 )
b10 H
b10 \
b1 +
b1 G
b1 [
b0 4
b0 E
b0 O
b11 8
b11 ;
b11 D
b11110 '
b11110 I
b11110 ]
1&
b10 =
b1 >
b11110 ?
b110011 @
b10 0
b10 L
b10 P
b10 V
b10 $
b10 ^
b10 7
b10 <
b1000001000111100110011 .
b1000001000111100110011 A
b1000001000111100110011 K
b1000001000111100110011 N
b1 5
b1 9
b1 U
b101100 ,
b101100 X
b101100 Y
b101000 2
b101000 M
b101000 S
b101000 W
b101000 Z
1!
#240000
0!
#250000
b10 5
b10 9
b10 U
b0 6
b0 :
b0 T
b10 $
b10 ^
b10 7
b10 <
b0 (
b0 Q
b0 `
b0 *
b0 R
b0 _
b1 4
b1 E
b1 O
b11 8
b11 ;
b11 D
b11101 '
b11101 I
b11101 ]
b0 )
b0 H
b0 \
b0 +
b0 G
b0 [
1&
b0 >
b11101 ?
b10011 @
b10 0
b10 L
b10 P
b10 V
b1000000000111010010011 .
b1000000000111010010011 A
b1000000000111010010011 K
b1000000000111010010011 N
b110000 ,
b110000 X
b110000 Y
b101100 2
b101100 M
b101100 S
b101100 W
b101100 Z
1!
#260000
0!
#270000
b1 4
b1 E
b1 O
b11 8
b11 ;
b11 D
b11 '
b11 I
b11 ]
1&
b11 =
b11 ?
b11 0
b11 L
b11 P
b11 V
b11 $
b11 ^
b11 7
b11 <
b1100000000000110010011 .
b1100000000000110010011 A
b1100000000000110010011 K
b1100000000000110010011 N
b11 5
b11 9
b11 U
b110100 ,
b110100 X
b110100 Y
b110000 2
b110000 M
b110000 S
b110000 W
b110000 Z
1!
#280000
0!
#290000
b10 6
b10 :
b10 T
1%
b10 (
b10 Q
b10 `
b10 *
b10 R
b10 _
13
b10 /
b10 F
b10 J
b11101 )
b11101 H
b11101 \
b11110 +
b11110 G
b11110 [
b0 4
b0 E
b0 O
b100 8
b100 ;
b100 D
b0 '
b0 I
b0 ]
0&
b11101 =
b11110 >
b10100 ?
b100101 B
b1 C
b1100011 @
b10010110100 0
b10010110100 L
b10010110100 P
b10010110100 V
b0 $
b0 ^
b0 7
b0 <
b1001011110111110001101001100011 .
b1001011110111110001101001100011 A
b1001011110111110001101001100011 K
b1001011110111110001101001100011 N
b10 5
b10 9
b10 U
b111000 ,
b111000 X
b111000 Y
b110100 2
b110100 M
b110100 S
b110100 W
b110100 Z
1!
#300000
0!
#310000
b11 5
b11 9
b11 U
b0 6
b0 :
b0 T
b11 $
b11 ^
b11 7
b11 <
0%
b0 (
b0 Q
b0 `
b0 *
b0 R
b0 _
b1 4
b1 E
b1 O
b1 '
b1 I
b1 ]
1&
b11 8
b11 ;
b11 D
b0 /
b0 F
b0 J
b0 )
b0 H
b0 \
b0 +
b0 G
b0 [
03
b11 =
b0 >
b1 ?
b0 B
b0 C
b10011 @
b11 0
b11 L
b11 P
b11 V
b1100000000000010010011 .
b1100000000000010010011 A
b1100000000000010010011 K
b1100000000000010010011 N
b111100 ,
b111100 X
b111100 Y
b111000 2
b111000 M
b111000 S
b111000 W
b111000 Z
1!
#320000
0!
#330000
b1 4
b1 E
b1 O
b11 8
b11 ;
b11 D
b10 '
b10 I
b10 ]
1&
b111 =
b10 ?
b111 0
b111 L
b111 P
b111 V
b111 $
b111 ^
b111 7
b111 <
b11100000000000100010011 .
b11100000000000100010011 A
b11100000000000100010011 K
b11100000000000100010011 N
b111 5
b111 9
b111 U
b1000000 ,
b1000000 X
b1000000 Y
b111100 2
b111100 M
b111100 S
b111100 W
b111100 Z
1!
#340000
0!
#350000
b11 6
b11 :
b11 T
b111 (
b111 Q
b111 `
b11 *
b11 R
b11 _
b10 )
b10 H
b10 \
b1 +
b1 G
b1 [
b0 4
b0 E
b0 O
b11 8
b11 ;
b11 D
b11110 '
b11110 I
b11110 ]
1&
b10 =
b1 >
b11110 ?
b110011 @
b10 0
b10 L
b10 P
b10 V
b1010 $
b1010 ^
b1010 7
b1010 <
b1000001000111100110011 .
b1000001000111100110011 A
b1000001000111100110011 K
b1000001000111100110011 N
b111 5
b111 9
b111 U
b1000100 ,
b1000100 X
b1000100 Y
b1000000 2
b1000000 M
b1000000 S
b1000000 W
b1000000 Z
1!
#360000
0!
#370000
b1010 5
b1010 9
b1010 U
b0 6
b0 :
b0 T
b1010 $
b1010 ^
b1010 7
b1010 <
b0 (
b0 Q
b0 `
b0 *
b0 R
b0 _
b1 4
b1 E
b1 O
b11 8
b11 ;
b11 D
b11101 '
b11101 I
b11101 ]
b0 )
b0 H
b0 \
b0 +
b0 G
b0 [
1&
b1010 =
b0 >
b11101 ?
b10011 @
b1010 0
b1010 L
b1010 P
b1010 V
b101000000000111010010011 .
b101000000000111010010011 A
b101000000000111010010011 K
b101000000000111010010011 N
b1001000 ,
b1001000 X
b1001000 Y
b1000100 2
b1000100 M
b1000100 S
b1000100 W
b1000100 Z
1!
#380000
0!
#390000
b1 4
b1 E
b1 O
b11 8
b11 ;
b11 D
b11 '
b11 I
b11 ]
1&
b100 =
b11 ?
b100 0
b100 L
b100 P
b100 V
b100 $
b100 ^
b100 7
b100 <
b10000000000000110010011 .
b10000000000000110010011 A
b10000000000000110010011 K
b10000000000000110010011 N
b100 5
b100 9
b100 U
b1001100 ,
b1001100 X
b1001100 Y
b1001000 2
b1001000 M
b1001000 S
b1001000 W
b1001000 Z
1!
#400000
0!
#410000
b1010 6
b1010 :
b1010 T
1%
b1010 (
b1010 Q
b1010 `
b1010 *
b1010 R
b1010 _
13
b10 /
b10 F
b10 J
b11101 )
b11101 H
b11101 \
b11110 +
b11110 G
b11110 [
b0 4
b0 E
b0 O
b100 8
b100 ;
b100 D
b0 '
b0 I
b0 ]
0&
b11101 =
b11110 >
b11100 ?
b100100 B
b1 C
b1100011 @
b10010011100 0
b10010011100 L
b10010011100 P
b10010011100 V
b0 $
b0 ^
b0 7
b0 <
b1001001110111110001111001100011 .
b1001001110111110001111001100011 A
b1001001110111110001111001100011 K
b1001001110111110001111001100011 N
b1010 5
b1010 9
b1010 U
b1010000 ,
b1010000 X
b1010000 Y
b1001100 2
b1001100 M
b1001100 S
b1001100 W
b1001100 Z
1!
#420000
0!
#430000
b0 5
b0 9
b0 U
b0 6
b0 :
b0 T
b0 $
b0 ^
b0 7
b0 <
0%
b0 (
b0 Q
b0 `
b0 *
b0 R
b0 _
b1 4
b1 E
b1 O
b1 '
b1 I
b1 ]
1&
b11 8
b11 ;
b11 D
b0 /
b0 F
b0 J
b0 )
b0 H
b0 \
b0 +
b0 G
b0 [
03
b0 =
b0 >
b1 ?
b0 B
b0 C
b10011 @
b0 0
b0 L
b0 P
b0 V
b10010011 .
b10010011 A
b10010011 K
b10010011 N
b1010100 ,
b1010100 X
b1010100 Y
b1010000 2
b1010000 M
b1010000 S
b1010000 W
b1010000 Z
1!
#440000
0!
#450000
b11111111111111111000000000000000 $
b11111111111111111000000000000000 ^
b11111111111111111000000000000000 7
b11111111111111111000000000000000 <
b100 /
b100 F
b100 J
b1 4
b1 E
b1 O
b11 8
b11 ;
b11 D
b10 '
b10 I
b10 ]
1&
b11111111111111111000000000000000 5
b11111111111111111000000000000000 9
b11111111111111111000000000000000 U
b11111 =
b11111 >
b10 ?
b1111111 B
b110111 @
b11111111111111111000000000000000 0
b11111111111111111000000000000000 L
b11111111111111111000000000000000 P
b11111111111111111000000000000000 V
b11111111111111111000000100110111 .
b11111111111111111000000100110111 A
b11111111111111111000000100110111 K
b11111111111111111000000100110111 N
b1011000 ,
b1011000 X
b1011000 Y
b1010100 2
b1010100 M
b1010100 S
b1010100 W
b1010100 Z
1!
#460000
0!
#470000
b11111111111111111000000000000000 (
b11111111111111111000000000000000 Q
b11111111111111111000000000000000 `
b10 )
b10 H
b10 \
b1 +
b1 G
b1 [
b0 4
b0 E
b0 O
b11 8
b11 ;
b11 D
b0 /
b0 F
b0 J
b11110 '
b11110 I
b11110 ]
1&
b10 =
b1 >
b11110 ?
b0 B
b110011 @
b10 0
b10 L
b10 P
b10 V
b11111111111111111000000000000000 $
b11111111111111111000000000000000 ^
b11111111111111111000000000000000 7
b11111111111111111000000000000000 <
b1000001000111100110011 .
b1000001000111100110011 A
b1000001000111100110011 K
b1000001000111100110011 N
b11111111111111111000000000000000 5
b11111111111111111000000000000000 9
b11111111111111111000000000000000 U
b1011100 ,
b1011100 X
b1011100 Y
b1011000 2
b1011000 M
b1011000 S
b1011000 W
b1011000 Z
1!
#480000
0!
#490000
b11111111111111111000000000000000 5
b11111111111111111000000000000000 9
b11111111111111111000000000000000 U
b11111111111111111000000000000000 $
b11111111111111111000000000000000 ^
b11111111111111111000000000000000 7
b11111111111111111000000000000000 <
b0 (
b0 Q
b0 `
b1 4
b1 E
b1 O
b100 /
b100 F
b100 J
b11 8
b11 ;
b11 D
b11101 '
b11101 I
b11101 ]
b0 )
b0 H
b0 \
b0 +
b0 G
b0 [
1&
b11111 =
b11111 >
b11101 ?
b1111111 B
b110111 @
b11111111111111111000000000000000 0
b11111111111111111000000000000000 L
b11111111111111111000000000000000 P
b11111111111111111000000000000000 V
b11111111111111111000111010110111 .
b11111111111111111000111010110111 A
b11111111111111111000111010110111 K
b11111111111111111000111010110111 N
b1100000 ,
b1100000 X
b1100000 Y
b1011100 2
b1011100 M
b1011100 S
b1011100 W
b1011100 Z
1!
#500000
0!
#510000
b1 4
b1 E
b1 O
b11 8
b11 ;
b11 D
b0 /
b0 F
b0 J
b11 '
b11 I
b11 ]
1&
b101 =
b0 >
b11 ?
b0 B
b10011 @
b101 0
b101 L
b101 P
b101 V
b101 $
b101 ^
b101 7
b101 <
b10100000000000110010011 .
b10100000000000110010011 A
b10100000000000110010011 K
b10100000000000110010011 N
b101 5
b101 9
b101 U
b1100100 ,
b1100100 X
b1100100 Y
b1100000 2
b1100000 M
b1100000 S
b1100000 W
b1100000 Z
1!
#520000
0!
#530000
b11111111111111111000000000000000 6
b11111111111111111000000000000000 :
b11111111111111111000000000000000 T
1%
b11111111111111111000000000000000 (
b11111111111111111000000000000000 Q
b11111111111111111000000000000000 `
b11111111111111111000000000000000 *
b11111111111111111000000000000000 R
b11111111111111111000000000000000 _
13
b10 /
b10 F
b10 J
b11101 )
b11101 H
b11101 \
b11110 +
b11110 G
b11110 [
b0 4
b0 E
b0 O
b100 8
b100 ;
b100 D
b0 '
b0 I
b0 ]
0&
b11101 =
b11110 >
b100 ?
b100100 B
b1 C
b1100011 @
b10010000100 0
b10010000100 L
b10010000100 P
b10010000100 V
b0 $
b0 ^
b0 7
b0 <
b1001001110111110001001001100011 .
b1001001110111110001001001100011 A
b1001001110111110001001001100011 K
b1001001110111110001001001100011 N
b11111111111111111000000000000000 5
b11111111111111111000000000000000 9
b11111111111111111000000000000000 U
b1101000 ,
b1101000 X
b1101000 Y
b1100100 2
b1100100 M
b1100100 S
b1100100 W
b1100100 Z
1!
#540000
0!
#550000
b10000000000000000000000000000000 5
b10000000000000000000000000000000 9
b10000000000000000000000000000000 U
b0 6
b0 :
b0 T
b10000000000000000000000000000000 $
b10000000000000000000000000000000 ^
b10000000000000000000000000000000 7
b10000000000000000000000000000000 <
0%
b0 (
b0 Q
b0 `
b0 *
b0 R
b0 _
b1 4
b1 E
b1 O
b1 '
b1 I
b1 ]
1&
b11 8
b11 ;
b11 D
b100 /
b100 F
b100 J
b0 )
b0 H
b0 \
b0 +
b0 G
b0 [
03
b0 =
b0 >
b1 ?
b1000000 B
b0 C
b110111 @
b10000000000000000000000000000000 0
b10000000000000000000000000000000 L
b10000000000000000000000000000000 P
b10000000000000000000000000000000 V
b10000000000000000000000010110111 .
b10000000000000000000000010110111 A
b10000000000000000000000010110111 K
b10000000000000000000000010110111 N
b1101100 ,
b1101100 X
b1101100 Y
b1101000 2
b1101000 M
b1101000 S
b1101000 W
b1101000 Z
1!
#560000
0!
#570000
b1 4
b1 E
b1 O
b11 8
b11 ;
b11 D
b0 /
b0 F
b0 J
b10 '
b10 I
b10 ]
1&
b10 ?
b0 B
b10011 @
b0 0
b0 L
b0 P
b0 V
b0 $
b0 ^
b0 7
b0 <
b100010011 .
b100010011 A
b100010011 K
b100010011 N
b0 5
b0 9
b0 U
b1110000 ,
b1110000 X
b1110000 Y
b1101100 2
b1101100 M
b1101100 S
b1101100 W
b1101100 Z
1!
#580000
0!
#590000
b10000000000000000000000000000000 6
b10000000000000000000000000000000 :
b10000000000000000000000000000000 T
b10000000000000000000000000000000 *
b10000000000000000000000000000000 R
b10000000000000000000000000000000 _
b10000000000000000000000000000000 $
b10000000000000000000000000000000 ^
b10000000000000000000000000000000 7
b10000000000000000000000000000000 <
b10 )
b10 H
b10 \
b1 +
b1 G
b1 [
b0 4
b0 E
b0 O
b11 8
b11 ;
b11 D
b11110 '
b11110 I
b11110 ]
1&
b0 5
b0 9
b0 U
b10 =
b1 >
b11110 ?
b110011 @
b10 0
b10 L
b10 P
b10 V
b1000001000111100110011 .
b1000001000111100110011 A
b1000001000111100110011 K
b1000001000111100110011 N
b1110100 ,
b1110100 X
b1110100 Y
b1110000 2
b1110000 M
b1110000 S
b1110000 W
b1110000 Z
1!
#600000
0!
#610000
b10000000000000000000000000000000 5
b10000000000000000000000000000000 9
b10000000000000000000000000000000 U
b0 6
b0 :
b0 T
b10000000000000000000000000000000 $
b10000000000000000000000000000000 ^
b10000000000000000000000000000000 7
b10000000000000000000000000000000 <
b0 *
b0 R
b0 _
b1 4
b1 E
b1 O
b100 /
b100 F
b100 J
b11 8
b11 ;
b11 D
b11101 '
b11101 I
b11101 ]
b0 )
b0 H
b0 \
b0 +
b0 G
b0 [
1&
b0 =
b0 >
b11101 ?
b1000000 B
b110111 @
b10000000000000000000000000000000 0
b10000000000000000000000000000000 L
b10000000000000000000000000000000 P
b10000000000000000000000000000000 V
b10000000000000000000111010110111 .
b10000000000000000000111010110111 A
b10000000000000000000111010110111 K
b10000000000000000000111010110111 N
b1111000 ,
b1111000 X
b1111000 Y
b1110100 2
b1110100 M
b1110100 S
b1110100 W
b1110100 Z
1!
#620000
0!
#630000
b1 4
b1 E
b1 O
b11 8
b11 ;
b11 D
b0 /
b0 F
b0 J
b11 '
b11 I
b11 ]
1&
b110 =
b11 ?
b0 B
b10011 @
b110 0
b110 L
b110 P
b110 V
b110 $
b110 ^
b110 7
b110 <
b11000000000000110010011 .
b11000000000000110010011 A
b11000000000000110010011 K
b11000000000000110010011 N
b110 5
b110 9
b110 U
b1111100 ,
b1111100 X
b1111100 Y
b1111000 2
b1111000 M
b1111000 S
b1111000 W
b1111000 Z
1!
#640000
0!
#650000
b10000000000000000000000000000000 6
b10000000000000000000000000000000 :
b10000000000000000000000000000000 T
1%
b10000000000000000000000000000000 (
b10000000000000000000000000000000 Q
b10000000000000000000000000000000 `
b10000000000000000000000000000000 *
b10000000000000000000000000000000 R
b10000000000000000000000000000000 _
13
b10 /
b10 F
b10 J
b11101 )
b11101 H
b11101 \
b11110 +
b11110 G
b11110 [
b0 4
b0 E
b0 O
b100 8
b100 ;
b100 D
b0 '
b0 I
b0 ]
0&
b11101 =
b11110 >
b1100 ?
b100011 B
b1 C
b1100011 @
b10001101100 0
b10001101100 L
b10001101100 P
b10001101100 V
b0 $
b0 ^
b0 7
b0 <
b1000111110111110001011001100011 .
b1000111110111110001011001100011 A
b1000111110111110001011001100011 K
b1000111110111110001011001100011 N
b10000000000000000000000000000000 5
b10000000000000000000000000000000 9
b10000000000000000000000000000000 U
b10000000 ,
b10000000 X
b10000000 Y
b1111100 2
b1111100 M
b1111100 S
b1111100 W
b1111100 Z
1!
#660000
0!
#670000
b10000000000000000000000000000000 $
b10000000000000000000000000000000 ^
b10000000000000000000000000000000 7
b10000000000000000000000000000000 <
b10000000000000000000000000000000 5
b10000000000000000000000000000000 9
b10000000000000000000000000000000 U
b0 6
b0 :
b0 T
0%
b0 (
b0 Q
b0 `
b0 *
b0 R
b0 _
b1 4
b1 E
b1 O
b1 '
b1 I
b1 ]
1&
b11 8
b11 ;
b11 D
b100 /
b100 F
b100 J
b0 )
b0 H
b0 \
b0 +
b0 G
b0 [
03
b0 =
b0 >
b1 ?
b1000000 B
b0 C
b110111 @
b10000000000000000000000000000000 0
b10000000000000000000000000000000 L
b10000000000000000000000000000000 P
b10000000000000000000000000000000 V
b10000000000000000000000010110111 .
b10000000000000000000000010110111 A
b10000000000000000000000010110111 K
b10000000000000000000000010110111 N
b10000100 ,
b10000100 X
b10000100 Y
b10000000 2
b10000000 M
b10000000 S
b10000000 W
b10000000 Z
1!
#680000
0!
#690000
b1 4
b1 E
b1 O
b11 8
b11 ;
b11 D
b100 /
b100 F
b100 J
b10 '
b10 I
b10 ]
1&
b11111 =
b11111 >
b10 ?
b1111111 B
b11111111111111111000000000000000 0
b11111111111111111000000000000000 L
b11111111111111111000000000000000 P
b11111111111111111000000000000000 V
b11111111111111111000000000000000 $
b11111111111111111000000000000000 ^
b11111111111111111000000000000000 7
b11111111111111111000000000000000 <
b11111111111111111000000100110111 .
b11111111111111111000000100110111 A
b11111111111111111000000100110111 K
b11111111111111111000000100110111 N
b11111111111111111000000000000000 5
b11111111111111111000000000000000 9
b11111111111111111000000000000000 U
b10001000 ,
b10001000 X
b10001000 Y
b10000100 2
b10000100 M
b10000100 S
b10000100 W
b10000100 Z
1!
#700000
0!
#710000
b10000000000000000000000000000000 6
b10000000000000000000000000000000 :
b10000000000000000000000000000000 T
b11111111111111111000000000000000 (
b11111111111111111000000000000000 Q
b11111111111111111000000000000000 `
b10000000000000000000000000000000 *
b10000000000000000000000000000000 R
b10000000000000000000000000000000 _
b10 )
b10 H
b10 \
b1 +
b1 G
b1 [
b0 4
b0 E
b0 O
b11 8
b11 ;
b11 D
b0 /
b0 F
b0 J
b11110 '
b11110 I
b11110 ]
1&
b10 =
b1 >
b11110 ?
b0 B
b110011 @
b10 0
b10 L
b10 P
b10 V
b1111111111111111000000000000000 $
b1111111111111111000000000000000 ^
b1111111111111111000000000000000 7
b1111111111111111000000000000000 <
b1000001000111100110011 .
b1000001000111100110011 A
b1000001000111100110011 K
b1000001000111100110011 N
b11111111111111111000000000000000 5
b11111111111111111000000000000000 9
b11111111111111111000000000000000 U
b10001100 ,
b10001100 X
b10001100 Y
b10001000 2
b10001000 M
b10001000 S
b10001000 W
b10001000 Z
1!
#720000
0!
#730000
b1111111111111111000000000000000 5
b1111111111111111000000000000000 9
b1111111111111111000000000000000 U
b0 6
b0 :
b0 T
b1111111111111111000000000000000 $
b1111111111111111000000000000000 ^
b1111111111111111000000000000000 7
b1111111111111111000000000000000 <
b0 (
b0 Q
b0 `
b0 *
b0 R
b0 _
b1 4
b1 E
b1 O
b100 /
b100 F
b100 J
b11 8
b11 ;
b11 D
b11101 '
b11101 I
b11101 ]
b0 )
b0 H
b0 \
b0 +
b0 G
b0 [
1&
b11111 =
b11111 >
b11101 ?
b111111 B
b110111 @
b1111111111111111000000000000000 0
b1111111111111111000000000000000 L
b1111111111111111000000000000000 P
b1111111111111111000000000000000 V
b1111111111111111000111010110111 .
b1111111111111111000111010110111 A
b1111111111111111000111010110111 K
b1111111111111111000111010110111 N
b10010000 ,
b10010000 X
b10010000 Y
b10001100 2
b10001100 M
b10001100 S
b10001100 W
b10001100 Z
1!
#740000
0!
#750000
b1 4
b1 E
b1 O
b11 8
b11 ;
b11 D
b0 /
b0 F
b0 J
b11 '
b11 I
b11 ]
1&
b111 =
b0 >
b11 ?
b0 B
b10011 @
b111 0
b111 L
b111 P
b111 V
b111 $
b111 ^
b111 7
b111 <
b11100000000000110010011 .
b11100000000000110010011 A
b11100000000000110010011 K
b11100000000000110010011 N
b111 5
b111 9
b111 U
b10010100 ,
b10010100 X
b10010100 Y
b10010000 2
b10010000 M
b10010000 S
b10010000 W
b10010000 Z
1!
#760000
0!
