Project/rvseed_4/tb/sim_out.vcd
$date
	Wed Apr 13 20:10:41 2022
$end
$version
	Icarus Verilog
$end
$timescale
	1ps
$end
$scope module tb_rvseed $end
$var reg 1 ! clk $end
$var reg 40 " inst_name [39:0] $end
$var reg 32 # reg_wdata [31:0] $end
$var reg 1 $ rst_n $end
$var reg 1 % zero $end
$scope module u_rvseed_0 $end
$var wire 1 ! clk $end
$var wire 32 & reg_wdata [31:0] $end
$var wire 1 $ rst_n $end
$var wire 1 % zero $end
$var wire 1 ' reg_wen $end
$var wire 5 ( reg_waddr [4:0] $end
$var wire 32 ) reg2_rdata [31:0] $end
$var wire 5 * reg2_raddr [4:0] $end
$var wire 32 + reg1_rdata [31:0] $end
$var wire 5 , reg1_raddr [4:0] $end
$var wire 32 - next_pc [31:0] $end
$var wire 1 . jump $end
$var wire 32 / inst [31:0] $end
$var wire 3 0 imm_gen_op [2:0] $end
$var wire 32 1 imm [31:0] $end
$var wire 1 2 ena $end
$var wire 32 3 curr_pc [31:0] $end
$var wire 1 4 branch $end
$var wire 2 5 alu_src_sel [1:0] $end
$var wire 4 6 alu_op [3:0] $end
$scope module u_ctrl_0 $end
$var wire 5 7 rs2 [4:0] $end
$var wire 5 8 rs1 [4:0] $end
$var wire 5 9 rd [4:0] $end
$var wire 7 : opcode [6:0] $end
$var wire 32 ; inst [31:0] $end
$var wire 7 < funct7 [6:0] $end
$var wire 3 = funct3 [2:0] $end
$var reg 4 > alu_op [3:0] $end
$var reg 2 ? alu_src_sel [1:0] $end
$var reg 1 4 branch $end
$var reg 3 @ imm_gen_op [2:0] $end
$var reg 1 . jump $end
$var reg 5 A reg1_raddr [4:0] $end
$var reg 5 B reg2_raddr [4:0] $end
$var reg 5 C reg_waddr [4:0] $end
$var reg 1 ' reg_wen $end
$upscope $end
$scope module u_imm_gen_0 $end
$var wire 3 D imm_gen_op [2:0] $end
$var wire 32 E inst [31:0] $end
$var reg 32 F imm [31:0] $end
$upscope $end
$scope module u_inst_mem_0 $end
$var wire 32 G curr_pc [31:0] $end
$var reg 32 H inst [31:0] $end
$upscope $end
$scope module u_mux_pc_0 $end
$var wire 1 4 branch $end
$var wire 32 I imm [31:0] $end
$var wire 1 . jump $end
$var wire 1 % zero $end
$var wire 1 2 ena $end
$var wire 32 J curr_pc [31:0] $end
$var reg 32 K next_pc [31:0] $end
$upscope $end
$scope module u_pc_reg_0 $end
$var wire 1 ! clk $end
$var wire 32 L next_pc [31:0] $end
$var wire 1 $ rst_n $end
$var reg 32 M curr_pc [31:0] $end
$var reg 1 2 ena $end
$upscope $end
$scope module u_reg_file_0 $end
$var wire 1 ! clk $end
$var wire 5 N reg1_raddr [4:0] $end
$var wire 5 O reg2_raddr [4:0] $end
$var wire 5 P reg_waddr [4:0] $end
$var wire 32 Q reg_wdata [31:0] $end
$var wire 1 ' reg_wen $end
$var wire 1 $ rst_n $end
$var reg 32 R reg1_rdata [31:0] $end
$var reg 32 S reg2_rdata [31:0] $end
$upscope $end
$upscope $end
$scope task inst_load $end
$var reg 40 T inst_name [39:0] $end
$upscope $end
$scope task reset $end
$upscope $end
$upscope $end
$enddefinitions $end
#0
$dumpvars
bx T
bx S
bx R
bx Q
bx P
bx O
bx N
bx M
bx L
bx K
bx J
bx I
bx H
bx G
bx F
bx E
bx D
bx C
bx B
bx A
bx @
bx ?
bx >
bx =
bx <
bx ;
bx :
bx 9
bx 8
bx 7
bx 6
bx 5
x4
bx 3
x2
bx 1
bx 0
bx /
x.
bx -
bx ,
bx +
bx *
bx )
bx (
x'
bx &
x%
x$
bx #
bx "
x!
$end
#10000
b0 )
b0 S
b0 +
b0 R
b1 5
b1 ?
b11 6
b11 >
b0 0
b0 @
b0 D
b11010 (
b11010 C
b11010 P
b0 *
b0 B
b0 O
b0 ,
b0 A
b0 N
1'
0.
04
b0 7
b0 8
b11010 9
b0 <
b0 =
b10011 :
b0 1
b0 F
b0 I
b110100010011 /
b110100010011 ;
b110100010011 E
b110100010011 H
b0 -
b0 K
b0 L
02
b0 3
b0 G
b0 J
b0 M
b10000010100010001000100 T
b10000010100010001000100 "
b1000 #
b1000 &
b1000 Q
1%
0$
1!
#20000
0!
#30000
b100 -
b100 K
b100 L
12
1!
1$
#40000
0!
#50000
b1 5
b1 ?
b11 6
b11 >
b11011 (
b11011 C
b11011 P
1'
b11011 9
b110110010011 /
b110110010011 ;
b110110010011 E
b110110010011 H
b1000 -
b1000 K
b1000 L
b100 3
b100 G
b100 J
b100 M
1!
#60000
0!
#70000
b1 5
b1 ?
b11 6
b11 >
b1 (
b1 C
b1 P
1'
b1 9
b10010011 /
b10010011 ;
b10010011 E
b10010011 H
b1100 -
b1100 K
b1100 L
b1000 3
b1000 G
b1000 J
b1000 M
1!
#80000
0!
#90000
b1 5
b1 ?
b11 6
b11 >
b10 (
b10 C
b10 P
1'
b10 9
b100010011 /
b100010011 ;
b100010011 E
b100010011 H
b10000 -
b10000 K
b10000 L
b1100 3
b1100 G
b1100 J
b1100 M
1!
#100000
0!
#110000
b1000 )
b1000 S
b1000 +
b1000 R
b10 *
b10 B
b10 O
b1 ,
b1 A
b1 N
b0 5
b0 ?
b11 6
b11 >
b11110 (
b11110 C
b11110 P
1'
b10 7
b1 8
b11110 9
b110011 :
b10 1
b10 F
b10 I
b1000001000111100110011 /
b1000001000111100110011 ;
b1000001000111100110011 E
b1000001000111100110011 H
b10100 -
b10100 K
b10100 L
b10000 3
b10000 G
b10000 J
b10000 M
1!
#120000
0!
#130000
b0 )
b0 S
b0 +
b0 R
b1 5
b1 ?
b11 6
b11 >
b11101 (
b11101 C
b11101 P
b0 *
b0 B
b0 O
b0 ,
b0 A
b0 N
1'
b0 7
b0 8
b11101 9
b10011 :
b0 1
b0 F
b0 I
b111010010011 /
b111010010011 ;
b111010010011 E
b111010010011 H
b11000 -
b11000 K
b11000 L
b10100 3
b10100 G
b10100 J
b10100 M
1!
#140000
0!
#150000
b1 5
b1 ?
b11 6
b11 >
b11 (
b11 C
b11 P
1'
b10 7
b11 9
b10 1
b10 F
b10 I
b1000000000000110010011 /
b1000000000000110010011 ;
b1000000000000110010011 E
b1000000000000110010011 H
b11100 -
b11100 K
b11100 L
b11000 3
b11000 G
b11000 J
b11000 M
1!
#160000
0!
#170000
b1000 )
b1000 S
b1000 +
b1000 R
14
b10 0
b10 @
b10 D
b11101 *
b11101 B
b11101 O
b11110 ,
b11110 A
b11110 N
b0 5
b0 ?
b100 6
b100 >
b0 (
b0 C
b0 P
0'
b11101 7
b11110 8
b1100 9
b100110 <
b1 =
b1100011 :
b10011001100 1
b10011001100 F
b10011001100 I
b1001101110111110001011001100011 /
b1001101110111110001011001100011 ;
b1001101110111110001011001100011 E
b1001101110111110001011001100011 H
b100000 -
b100000 K
b100000 L
b11100 3
b11100 G
b11100 J
b11100 M
1!
#180000
0!
#190000
b0 )
b0 S
b0 +
b0 R
b1 5
b1 ?
b1 (
b1 C
b1 P
1'
b11 6
b11 >
b0 0
b0 @
b0 D
b0 *
b0 B
b0 O
b0 ,
b0 A
b0 N
04
b1 7
b0 8
b1 9
b0 <
b0 =
b10011 :
b1 1
b1 F
b1 I
b100000000000010010011 /
b100000000000010010011 ;
b100000000000010010011 E
b100000000000010010011 H
b100100 -
b100100 K
b100100 L
b100000 3
b100000 G
b100000 J
b100000 M
1!
#200000
0!
#210000
b1 5
b1 ?
b11 6
b11 >
b10 (
b10 C
b10 P
1'
b10 9
b1 1
b1 F
b1 I
b100000000000100010011 /
b100000000000100010011 ;
b100000000000100010011 E
b100000000000100010011 H
b101000 -
b101000 K
b101000 L
b100100 3
b100100 G
b100100 J
b100100 M
1!
#220000
0!
#230000
b1000 )
b1000 S
b1000 +
b1000 R
b10 *
b10 B
b10 O
b1 ,
b1 A
b1 N
b0 5
b0 ?
b11 6
b11 >
b11110 (
b11110 C
b11110 P
1'
b10 7
b1 8
b11110 9
b110011 :
b10 1
b10 F
b10 I
b1000001000111100110011 /
b1000001000111100110011 ;
b1000001000111100110011 E
b1000001000111100110011 H
b101100 -
b101100 K
b101100 L
b101000 3
b101000 G
b101000 J
b101000 M
1!
#240000
0!
#250000
b0 )
b0 S
b0 +
b0 R
b1 5
b1 ?
b11 6
b11 >
b11101 (
b11101 C
b11101 P
b0 *
b0 B
b0 O
b0 ,
b0 A
b0 N
1'
b0 8
b11101 9
b10011 :
b10 1
b10 F
b10 I
b1000000000111010010011 /
b1000000000111010010011 ;
b1000000000111010010011 E
b1000000000111010010011 H
b110000 -
b110000 K
b110000 L
b101100 3
b101100 G
b101100 J
b101100 M
1!
#260000
0!
#270000
b1 5
b1 ?
b11 6
b11 >
b11 (
b11 C
b11 P
1'
b11 7
b11 9
b11 1
b11 F
b11 I
b1100000000000110010011 /
b1100000000000110010011 ;
b1100000000000110010011 E
b1100000000000110010011 H
b110100 -
b110100 K
b110100 L
b110000 3
b110000 G
b110000 J
b110000 M
1!
#280000
0!
#290000
b1000 )
b1000 S
b1000 +
b1000 R
14
b10 0
b10 @
b10 D
b11101 *
b11101 B
b11101 O
b11110 ,
b11110 A
b11110 N
b0 5
b0 ?
b100 6
b100 >
b0 (
b0 C
b0 P
0'
b11101 7
b11110 8
b10100 9
b100101 <
b1 =
b1100011 :
b10010110100 1
b10010110100 F
b10010110100 I
b1001011110111110001101001100011 /
b1001011110111110001101001100011 ;
b1001011110111110001101001100011 E
b1001011110111110001101001100011 H
b111000 -
b111000 K
b111000 L
b110100 3
b110100 G
b110100 J
b110100 M
1!
#300000
0!
#310000
b0 )
b0 S
b0 +
b0 R
b1 5
b1 ?
b1 (
b1 C
b1 P
1'
b11 6
b11 >
b0 0
b0 @
b0 D
b0 *
b0 B
b0 O
b0 ,
b0 A
b0 N
04
b11 7
b0 8
b1 9
b0 <
b0 =
b10011 :
b11 1
b11 F
b11 I
b1100000000000010010011 /
b1100000000000010010011 ;
b1100000000000010010011 E
b1100000000000010010011 H
b111100 -
b111100 K
b111100 L
b111000 3
b111000 G
b111000 J
b111000 M
1!
#320000
0!
#330000
b1 5
b1 ?
b11 6
b11 >
b10 (
b10 C
b10 P
1'
b111 7
b10 9
b111 1
b111 F
b111 I
b11100000000000100010011 /
b11100000000000100010011 ;
b11100000000000100010011 E
b11100000000000100010011 H
b1000000 -
b1000000 K
b1000000 L
b111100 3
b111100 G
b111100 J
b111100 M
1!
#340000
0!
#350000
b1000 )
b1000 S
b1000 +
b1000 R
b10 *
b10 B
b10 O
b1 ,
b1 A
b1 N
b0 5
b0 ?
b11 6
b11 >
b11110 (
b11110 C
b11110 P
1'
b10 7
b1 8
b11110 9
b110011 :
b10 1
b10 F
b10 I
b1000001000111100110011 /
b1000001000111100110011 ;
b1000001000111100110011 E
b1000001000111100110011 H
b1000100 -
b1000100 K
b1000100 L
b1000000 3
b1000000 G
b1000000 J
b1000000 M
1!
#360000
0!
#370000
b0 )
b0 S
b0 +
b0 R
b1 5
b1 ?
b11 6
b11 >
b11101 (
b11101 C
b11101 P
b0 *
b0 B
b0 O
b0 ,
b0 A
b0 N
1'
b1010 7
b0 8
b11101 9
b10011 :
b1010 1
b1010 F
b1010 I
b101000000000111010010011 /
b101000000000111010010011 ;
b101000000000111010010011 E
b101000000000111010010011 H
b1001000 -
b1001000 K
b1001000 L
b1000100 3
b1000100 G
b1000100 J
b1000100 M
1!
#380000
0!
#390000
b1 5
b1 ?
b11 6
b11 >
b11 (
b11 C
b11 P
1'
b100 7
b11 9
b100 1
b100 F
b100 I
b10000000000000110010011 /
b10000000000000110010011 ;
b10000000000000110010011 E
b10000000000000110010011 H
b1001100 -
b1001100 K
b1001100 L
b1001000 3
b1001000 G
b1001000 J
b1001000 M
1!
#400000
0!
#410000
b1000 )
b1000 S
b1000 +
b1000 R
14
b10 0
b10 @
b10 D
b11101 *
b11101 B
b11101 O
b11110 ,
b11110 A
b11110 N
b0 5
b0 ?
b100 6
b100 >
b0 (
b0 C
b0 P
0'
b11101 7
b11110 8
b11100 9
b100100 <
b1 =
b1100011 :
b10010011100 1
b10010011100 F
b10010011100 I
b1001001110111110001111001100011 /
b1001001110111110001111001100011 ;
b1001001110111110001111001100011 E
b1001001110111110001111001100011 H
b1010000 -
b1010000 K
b1010000 L
b1001100 3
b1001100 G
b1001100 J
b1001100 M
1!
#420000
0!
#430000
b0 )
b0 S
b0 +
b0 R
b1 5
b1 ?
b1 (
b1 C
b1 P
1'
b11 6
b11 >
b0 0
b0 @
b0 D
b0 *
b0 B
b0 O
b0 ,
b0 A
b0 N
04
b0 7
b0 8
b1 9
b0 <
b0 =
b10011 :
b0 1
b0 F
b0 I
b10010011 /
b10010011 ;
b10010011 E
b10010011 H
b1010100 -
b1010100 K
b1010100 L
b1010000 3
b1010000 G
b1010000 J
b1010000 M
1!
#440000
0!
#450000
b100 0
b100 @
b100 D
b1 5
b1 ?
b11 6
b11 >
b10 (
b10 C
b10 P
1'
b11111 7
b11111 8
b10 9
b1111111 <
b110111 :
b11111111111111111000000000000000 1
b11111111111111111000000000000000 F
b11111111111111111000000000000000 I
b11111111111111111000000100110111 /
b11111111111111111000000100110111 ;
b11111111111111111000000100110111 E
b11111111111111111000000100110111 H
b1011000 -
b1011000 K
b1011000 L
b1010100 3
b1010100 G
b1010100 J
b1010100 M
1!
#460000
0!
#470000
b1000 )
b1000 S
b1000 +
b1000 R
b10 *
b10 B
b10 O
b1 ,
b1 A
b1 N
b0 5
b0 ?
b11 6
b11 >
b0 0
b0 @
b0 D
b11110 (
b11110 C
b11110 P
1'
b10 7
b1 8
b11110 9
b0 <
b110011 :
b10 1
b10 F
b10 I
b1000001000111100110011 /
b1000001000111100110011 ;
b1000001000111100110011 E
b1000001000111100110011 H
b1011100 -
b1011100 K
b1011100 L
b1011000 3
b1011000 G
b1011000 J
b1011000 M
1!
#480000
0!
#490000
b0 )
b0 S
b0 +
b0 R
b1 5
b1 ?
b100 0
b100 @
b100 D
b11 6
b11 >
b11101 (
b11101 C
b11101 P
b0 *
b0 B
b0 O
b0 ,
b0 A
b0 N
1'
b11111 7
b11111 8
b11101 9
b1111111 <
b110111 :
b11111111111111111000000000000000 1
b11111111111111111000000000000000 F
b11111111111111111000000000000000 I
b11111111111111111000111010110111 /
b11111111111111111000111010110111 ;
b11111111111111111000111010110111 E
b11111111111111111000111010110111 H
b1100000 -
b1100000 K
b1100000 L
b1011100 3
b1011100 G
b1011100 J
b1011100 M
1!
#500000
0!
#510000
b1 5
b1 ?
b11 6
b11 >
b0 0
b0 @
b0 D
b11 (
b11 C
b11 P
1'
b101 7
b0 8
b11 9
b0 <
b10011 :
b101 1
b101 F
b101 I
b10100000000000110010011 /
b10100000000000110010011 ;
b10100000000000110010011 E
b10100000000000110010011 H
b1100100 -
b1100100 K
b1100100 L
b1100000 3
b1100000 G
b1100000 J
b1100000 M
1!
#520000
0!
#530000
b1000 )
b1000 S
b1000 +
b1000 R
14
b10 0
b10 @
b10 D
b11101 *
b11101 B
b11101 O
b11110 ,
b11110 A
b11110 N
b0 5
b0 ?
b100 6
b100 >
b0 (
b0 C
b0 P
0'
b11101 7
b11110 8
b100 9
b100100 <
b1 =
b1100011 :
b10010000100 1
b10010000100 F
b10010000100 I
b1001001110111110001001001100011 /
b1001001110111110001001001100011 ;
b1001001110111110001001001100011 E
b1001001110111110001001001100011 H
b1101000 -
b1101000 K
b1101000 L
b1100100 3
b1100100 G
b1100100 J
b1100100 M
1!
#540000
0!
#550000
b0 )
b0 S
b0 +
b0 R
b1 5
b1 ?
b1 (
b1 C
b1 P
1'
b11 6
b11 >
b100 0
b100 @
b100 D
b0 *
b0 B
b0 O
b0 ,
b0 A
b0 N
04
b0 7
b0 8
b1 9
b1000000 <
b0 =
b110111 :
b10000000000000000000000000000000 1
b10000000000000000000000000000000 F
b10000000000000000000000000000000 I
b10000000000000000000000010110111 /
b10000000000000000000000010110111 ;
b10000000000000000000000010110111 E
b10000000000000000000000010110111 H
b1101100 -
b1101100 K
b1101100 L
b1101000 3
b1101000 G
b1101000 J
b1101000 M
1!
#560000
0!
#570000
b1 5
b1 ?
b11 6
b11 >
b0 0
b0 @
b0 D
b10 (
b10 C
b10 P
1'
b10 9
b0 <
b10011 :
b0 1
b0 F
b0 I
b100010011 /
b100010011 ;
b100010011 E
b100010011 H
b1110000 -
b1110000 K
b1110000 L
b1101100 3
b1101100 G
b1101100 J
b1101100 M
1!
#580000
0!
#590000
b1000 )
b1000 S
b1000 +
b1000 R
b10 *
b10 B
b10 O
b1 ,
b1 A
b1 N
b0 5
b0 ?
b11 6
b11 >
b11110 (
b11110 C
b11110 P
1'
b10 7
b1 8
b11110 9
b110011 :
b10 1
b10 F
b10 I
b1000001000111100110011 /
b1000001000111100110011 ;
b1000001000111100110011 E
b1000001000111100110011 H
b1110100 -
b1110100 K
b1110100 L
b1110000 3
b1110000 G
b1110000 J
b1110000 M
1!
#600000
0!
#610000
b0 )
b0 S
b0 +
b0 R
b1 5
b1 ?
b100 0
b100 @
b100 D
b11 6
b11 >
b11101 (
b11101 C
b11101 P
b0 *
b0 B
b0 O
b0 ,
b0 A
b0 N
1'
b0 7
b0 8
b11101 9
b1000000 <
b110111 :
b10000000000000000000000000000000 1
b10000000000000000000000000000000 F
b10000000000000000000000000000000 I
b10000000000000000000111010110111 /
b10000000000000000000111010110111 ;
b10000000000000000000111010110111 E
b10000000000000000000111010110111 H
b1111000 -
b1111000 K
b1111000 L
b1110100 3
b1110100 G
b1110100 J
b1110100 M
1!
#620000
0!
#630000
b1 5
b1 ?
b11 6
b11 >
b0 0
b0 @
b0 D
b11 (
b11 C
b11 P
1'
b110 7
b11 9
b0 <
b10011 :
b110 1
b110 F
b110 I
b11000000000000110010011 /
b11000000000000110010011 ;
b11000000000000110010011 E
b11000000000000110010011 H
b1111100 -
b1111100 K
b1111100 L
b1111000 3
b1111000 G
b1111000 J
b1111000 M
1!
#640000
0!
#650000
b1000 )
b1000 S
b1000 +
b1000 R
14
b10 0
b10 @
b10 D
b11101 *
b11101 B
b11101 O
b11110 ,
b11110 A
b11110 N
b0 5
b0 ?
b100 6
b100 >
b0 (
b0 C
b0 P
0'
b11101 7
b11110 8
b1100 9
b100011 <
b1 =
b1100011 :
b10001101100 1
b10001101100 F
b10001101100 I
b1000111110111110001011001100011 /
b1000111110111110001011001100011 ;
b1000111110111110001011001100011 E
b1000111110111110001011001100011 H
b10000000 -
b10000000 K
b10000000 L
b1111100 3
b1111100 G
b1111100 J
b1111100 M
1!
#660000
0!
#670000
b0 )
b0 S
b0 +
b0 R
b1 5
b1 ?
b1 (
b1 C
b1 P
1'
b11 6
b11 >
b100 0
b100 @
b100 D
b0 *
b0 B
b0 O
b0 ,
b0 A
b0 N
04
b0 7
b0 8
b1 9
b1000000 <
b0 =
b110111 :
b10000000000000000000000000000000 1
b10000000000000000000000000000000 F
b10000000000000000000000000000000 I
b10000000000000000000000010110111 /
b10000000000000000000000010110111 ;
b10000000000000000000000010110111 E
b10000000000000000000000010110111 H
b10000100 -
b10000100 K
b10000100 L
b10000000 3
b10000000 G
b10000000 J
b10000000 M
1!
#680000
0!
#690000
b1 5
b1 ?
b11 6
b11 >
b100 0
b100 @
b100 D
b10 (
b10 C
b10 P
1'
b11111 7
b11111 8
b10 9
b1111111 <
b11111111111111111000000000000000 1
b11111111111111111000000000000000 F
b11111111111111111000000000000000 I
b11111111111111111000000100110111 /
b11111111111111111000000100110111 ;
b11111111111111111000000100110111 E
b11111111111111111000000100110111 H
b10001000 -
b10001000 K
b10001000 L
b10000100 3
b10000100 G
b10000100 J
b10000100 M
1!
#700000
0!
#710000
b1000 )
b1000 S
b1000 +
b1000 R
b10 *
b10 B
b10 O
b1 ,
b1 A
b1 N
b0 5
b0 ?
b11 6
b11 >
b0 0
b0 @
b0 D
b11110 (
b11110 C
b11110 P
1'
b10 7
b1 8
b11110 9
b0 <
b110011 :
b10 1
b10 F
b10 I
b1000001000111100110011 /
b1000001000111100110011 ;
b1000001000111100110011 E
b1000001000111100110011 H
b10001100 -
b10001100 K
b10001100 L
b10001000 3
b10001000 G
b10001000 J
b10001000 M
1!
#720000
0!
#730000
b0 )
b0 S
b0 +
b0 R
b1 5
b1 ?
b100 0
b100 @
b100 D
b11 6
b11 >
b11101 (
b11101 C
b11101 P
b0 *
b0 B
b0 O
b0 ,
b0 A
b0 N
1'
b11111 7
b11111 8
b11101 9
b111111 <
b110111 :
b1111111111111111000000000000000 1
b1111111111111111000000000000000 F
b1111111111111111000000000000000 I
b1111111111111111000111010110111 /
b1111111111111111000111010110111 ;
b1111111111111111000111010110111 E
b1111111111111111000111010110111 H
b10010000 -
b10010000 K
b10010000 L
b10001100 3
b10001100 G
b10001100 J
b10001100 M
1!
#740000
0!
#750000
b1 5
b1 ?
b11 6
b11 >
b0 0
b0 @
b0 D
b11 (
b11 C
b11 P
1'
b111 7
b0 8
b11 9
b0 <
b10011 :
b111 1
b111 F
b111 I
b11100000000000110010011 /
b11100000000000110010011 ;
b11100000000000110010011 E
b11100000000000110010011 H
b10010100 -
b10010100 K
b10010100 L
b10010000 3
b10010000 G
b10010000 J
b10010000 M
1!
#760000
0!
#770000
b1000 )
b1000 S
b1000 +
b1000 R
14
b10 0
b10 @
b10 D
b11101 *
b11101 B
b11101 O
b11110 ,
b11110 A
b11110 N
b0 5
b0 ?
b100 6
b100 >
b0 (
b0 C
b0 P
0'
b11101 7
b11110 8
b10100 9
b100010 <
b1 =
b1100011 :
b10001010100 1
b10001010100 F
b10001010100 I
b1000101110111110001101001100011 /
b1000101110111110001101001100011 ;
b1000101110111110001101001100011 E
b1000101110111110001101001100011 H
b10011000 -
b10011000 K
b10011000 L
b10010100 3
b10010100 G
b10010100 J
b10010100 M
1!
#780000
0!
#790000
b0 )
b0 S
b0 +
b0 R
b1 5
b1 ?
b1 (
b1 C
b1 P
1'
b11 6
b11 >
b0 0
b0 @
b0 D
b0 *
b0 B
b0 O
b0 ,
b0 A
b0 N
04
b0 7
b0 8
b1 9
b0 <
b0 =
b10011 :
b0 1
b0 F
b0 I
b10010011 /
b10010011 ;
b10010011 E
b10010011 H
b10011100 -
b10011100 K
b10011100 L
b10011000 3
b10011000 G
b10011000 J
b10011000 M
1!
#800000
0!
#810000
b1000000000000000 1
b1000000000000000 F
b1000000000000000 I
b100 0
b100 @
b100 D
b1 5
b1 ?
b11 6
b11 >
b10 (
b10 C
b10 P
1'
b1 8
b10 9
b110111 :
b1000000100110111 /
b1000000100110111 ;
b1000000100110111 E
b1000000100110111 H
b10100000 -
b10100000 K
b10100000 L
b10011100 3
b10011100 G
b10011100 J
b10011100 M
1!
#820000
0!
#830000
b1000 +
b1000 R
b10 ,
b10 A
b10 N
b1 5
b1 ?
b11 6
b11 >
b0 0
b0 @
b0 D
b10 (
b10 C
b10 P
1'
b11111 7
b10 8
b1111111 <
b10011 :
b11111111111111111111111111111111 1
b11111111111111111111111111111111 F
b11111111111111111111111111111111 I
b11111111111100010000000100010011 /
b11111111111100010000000100010011 ;
b11111111111100010000000100010011 E
b11111111111100010000000100010011 H
b10100100 -
b10100100 K
b10100100 L
b10100000 3
b10100000 G
b10100000 J
b10100000 M
1!
#840000
0!
#850000
b1000 )
b1000 S
b10 *
b10 B
b10 O
b0 5
b0 ?
b11 6
b11 >
b11110 (
b11110 C
b11110 P
b1 ,
b1 A
b1 N
1'
b10 7
b1 8
b11110 9
b0 <
b110011 :
b10 1
b10 F
b10 I
b1000001000111100110011 /
b1000001000111100110011 ;
b1000001000111100110011 E
b1000001000111100110011 H
b10101000 -
b10101000 K
b10101000 L
b10100100 3
b10100100 G
b10100100 J
b10100100 M
1!
#860000
0!
#870000
b0 )
b0 S
b0 +
b0 R
b1 5
b1 ?
b100 0
b100 @
b100 D
b11 6
b11 >
b11101 (
b11101 C
b11101 P
b0 *
b0 B
b0 O
b0 ,
b0 A
b0 N
1'
b0 7
b11101 9
b110111 :
b1000000000000000 1
b1000000000000000 F
b1000000000000000 I
b1000111010110111 /
b1000111010110111 ;
b1000111010110111 E
b1000111010110111 H
b10101100 -
b10101100 K
b10101100 L
b10101000 3
b10101000 G
b10101000 J
b10101000 M
1!
#880000
0!
#890000
b1000 +
b1000 R
b11101 ,
b11101 A
b11101 N
b1 5
b1 ?
b11 6
b11 >
b0 0
b0 @
b0 D
b11101 (
b11101 C
b11101 P
1'
b11111 7
b11101 8
b1111111 <
b10011 :
b11111111111111111111111111111111 1
b11111111111111111111111111111111 F
b11111111111111111111111111111111 I
b11111111111111101000111010010011 /
b11111111111111101000111010010011 ;
b11111111111111101000111010010011 E
b11111111111111101000111010010011 H
b10110000 -
b10110000 K
b10110000 L
b10101100 3
b10101100 G
b10101100 J
b10101100 M
1!
#900000
0!
#910000
b0 +
b0 R
b1 5
b1 ?
b11 6
b11 >
b11 (
b11 C
b11 P
b0 ,
b0 A
b0 N
1'
b1000 7
b0 8
b11 9
b0 <
b1000 1
b1000 F
b1000 I
b100000000000000110010011 /
b100000000000000110010011 ;
b100000000000000110010011 E
b100000000000000110010011 H
b10110100 -
b10110100 K
b10110100 L
b10110000 3
b10110000 G
b10110000 J
b10110000 M
1!
#920000
0!
#930000
b1000 )
b1000 S
b1000 +
b1000 R
14
b10 0
b10 @
b10 D
b11101 *
b11101 B
b11101 O
b11110 ,
b11110 A
b11110 N
b0 5
b0 ?
b100 6
b100 >
b0 (
b0 C
b0 P
0'
b11101 7
b11110 8
b10100 9
b100001 <
b1 =
b1100011 :
b10000110100 1
b10000110100 F
b10000110100 I
b1000011110111110001101001100011 /
b1000011110111110001101001100011 ;
b1000011110111110001101001100011 E
b1000011110111110001101001100011 H
b10111000 -
b10111000 K
b10111000 L
b10110100 3
b10110100 G
b10110100 J
b10110100 M
1!
#940000
0!
#950000
b0 )
b0 S
b0 +
b0 R
b1 5
b1 ?
b1 (
b1 C
b1 P
1'
b11 6
b11 >
b100 0
b100 @
b100 D
b0 *
b0 B
b0 O
b0 ,
b0 A
b0 N
04
b0 7
b0 8
b1 9
b1000000 <
b0 =
b110111 :
b10000000000000000000000000000000 1
b10000000000000000000000000000000 F
b10000000000000000000000000000000 I
b10000000000000000000000010110111 /
b10000000000000000000000010110111 ;
b10000000000000000000000010110111 E
b10000000000000000000000010110111 H
b10111100 -
b10111100 K
b10111100 L
b10111000 3
b10111000 G
b10111000 J
b10111000 M
1!
#960000
0!
#970000
b1000 +
b1000 R
b1 ,
b1 A
b1 N
b1 5
b1 ?
b11 6
b11 >
b0 0
b0 @
b0 D
b1 (
b1 C
b1 P
1'
b11111 7
b1 8
b1111111 <
b10011 :
b11111111111111111111111111111111 1
b11111111111111111111111111111111 F
b11111111111111111111111111111111 I
b11111111111100001000000010010011 /
b11111111111100001000000010010011 ;
b11111111111100001000000010010011 E
b11111111111100001000000010010011 H
b11000000 -
b11000000 K
b11000000 L
b10111100 3
b10111100 G
b10111100 J
b10111100 M
1!
#980000
0!
#990000
b0 +
b0 R
b1 5
b1 ?
b11 6
b11 >
b10 (
b10 C
b10 P
b0 ,
b0 A
b0 N
1'
b0 7
b0 8
b10 9
b0 <
b0 1
b0 F
b0 I
b100010011 /
b100010011 ;
b100010011 E
b100010011 H
b11000100 -
b11000100 K
b11000100 L
b11000000 3
b11000000 G
b11000000 J
b11000000 M
1!
#1000000
0!
#1010000
b1000 )
b1000 S
b1000 +
b1000 R
b10 *
b10 B
b10 O
b1 ,
b1 A
b1 N
b0 5
b0 ?
b11 6
b11 >
b11110 (
b11110 C
b11110 P
1'
b10 7
b1 8
b11110 9
b110011 :
b10 1
b10 F
b10 I
b1000001000111100110011 /
b1000001000111100110011 ;
b1000001000111100110011 E
b1000001000111100110011 H
b11001000 -
b11001000 K
b11001000 L
b11000100 3
b11000100 G
b11000100 J
b11000100 M
1!
#1020000
0!
#1030000
b0 )
b0 S
b0 +
b0 R
b1 5
b1 ?
b100 0
b100 @
b100 D
b11 6
b11 >
b11101 (
b11101 C
b11101 P
b0 *
b0 B
b0 O
b0 ,
b0 A
b0 N
1'
b0 7
b0 8
b11101 9
b1000000 <
b110111 :
b10000000000000000000000000000000 1
b10000000000000000000000000000000 F
b10000000000000000000000000000000 I
b10000000000000000000111010110111 /
b10000000000000000000111010110111 ;
b10000000000000000000111010110111 E
b10000000000000000000111010110111 H
b11001100 -
b11001100 K
b11001100 L
b11001000 3
b11001000 G
b11001000 J
b11001000 M
1!
#1040000
0!
#1050000
b1000 +
b1000 R
b11101 ,
b11101 A
b11101 N
b1 5
b1 ?
b11 6
b11 >
b0 0
b0 @
b0 D
b11101 (
b11101 C
b11101 P
1'
b11111 7
b11101 8
b1111111 <
b10011 :
b11111111111111111111111111111111 1
b11111111111111111111111111111111 F
b11111111111111111111111111111111 I
b11111111111111101000111010010011 /
b11111111111111101000111010010011 ;
b11111111111111101000111010010011 E
b11111111111111101000111010010011 H
b11010000 -
b11010000 K
b11010000 L
b11001100 3
b11001100 G
b11001100 J
b11001100 M
1!
#1060000
0!
#1070000
b0 +
b0 R
b1 5
b1 ?
b11 6
b11 >
b11 (
b11 C
b11 P
b0 ,
b0 A
b0 N
1'
b1001 7
b0 8
b11 9
b0 <
b1001 1
b1001 F
b1001 I
b100100000000000110010011 /
b100100000000000110010011 ;
b100100000000000110010011 E
b100100000000000110010011 H
b11010100 -
b11010100 K
b11010100 L
b11010000 3
b11010000 G
b11010000 J
b11010000 M
1!
#1080000
0!
